Tidy Tuesday Exercise – Natalie Cann Data Analysis Portfolio
…
Now, I will make a summary table:

lm_metrics <- collect_metrics(lm_fit) %>% mutate(model = "Linear Regression")
rf_metrics <- collect_metrics(rf_fit) %>% mutate(model = "Random Forest")
knn_metrics <- collect_metrics(knn_fit) %>% mutate(model = "KNN")

bind_rows(lm_metrics, rf_metrics, knn_metrics)

# A tibble: 24 × 8
   .metric .estimator   mean     n std_err .config               model neighbors
   <chr>   <chr>       <dbl> <int>   <dbl> <chr>                 <chr>     <dbl>
 1 rmse    standard   32.3       5  4.36   Preprocessor1_Model1  Line…        NA
 2 rsq     standard    0.127     5  0.0448 Preprocessor1_Model1  Line…        NA
 3 rmse    standard   36.0       5  6.68   Preprocessor1_Model1  Rand…        NA
 4 rsq     standard    0.184     5  0.0654 Preprocessor1_Model1  Rand…        NA
 5 rmse    standard   47.6       5  7.48   Preprocessor1_Model01 KNN           1
 6 rsq     standard    0.188     5  0.0784 Preprocessor1_Model01 KNN           1
 7 rmse    standard   36.3       5  5.98   Preprocessor1_Model02 KNN           3
 8 rsq     standard    0.154     5  0.0436 Preprocessor1_Model02 KNN           3
 9 rmse    standard   32.4       5  5.60   Preprocessor1_Model03 KNN           5
10 rsq     standard    0.174     5  0.0615 Preprocessor1_Model03 KNN           5
# ℹ 14 more rows
…
